// Jest Snapshot v1, https://goo.gl/fbAQLP

exports[`SignUp Screen Container renders view 1`] = `
<SignUp
  email=""
  emailError={null}
  isProcessingSignUp={false}
  isUserUnapproved={false}
  onEmailChange={[Function]}
  onFirstNameChange={[Function]}
  onLastNameChange={[Function]}
  onPasswordChange={[Function]}
  onSubmit={[Function]}
  password=""
  shouldDisableSignUp={true}
  signUpError={null}
/>
`;
