<?xml version="1.0" encoding="UTF-8"?>
<svg width="80px" height="23px" viewBox="0 0 80 23" version="1.1" xmlns="http://www.w3.org/2000/svg" xmlns:xlink="http://www.w3.org/1999/xlink">
    <!-- Generator: Sketch 50 (54983) - http://www.bohemiancoding.com/sketch -->
    <title>Group 18</title>
    <desc>Created with Sketch.</desc>
    <defs>
        <polygon id="path-1" points="0 0.0998857143 24.148989 0.0998857143 24.148989 22.7808429 0 22.7808429"></polygon>
        <polygon id="path-3" points="0 0 24.149011 0 24.149011 22.6809571 0 22.6809571"></polygon>
        <polygon id="path-5" points="0.0916263736 0.0998857143 24.2406374 0.0998857143 24.2406374 22.780821 0.0916263736 22.780821"></polygon>
    </defs>
    <g id="About-Us" stroke="none" stroke-width="1" fill="none" fill-rule="evenodd">
        <g transform="translate(-272.000000, -3605.000000)" id="Group-9">
            <g transform="translate(-2.000000, 3391.000000)">
                <g id="Group-18" transform="translate(274.000000, 214.000000)">
                    <path d="M15.4127253,14.8767286 C15.4127253,14.8767286 15.5043736,12.7228333 12.3358022,12.7410143 L9.25887912,12.7410143 L9.25887912,17.1949095 L12.3358022,17.1949095 C12.3358022,17.1949095 15.4127253,17.3410143 15.4127253,14.8767286" id="Fill-1" fill="#FFFFFF"></path>
                    <g id="Group-5" transform="translate(0.000000, 0.119162)">
                        <mask id="mask-2" fill="white">
                            <use xlink:href="#path-1"></use>
                        </mask>
                        <g id="Clip-4"></g>
                        <path d="M6.34679121,3.29414762 L12.0839341,3.29414762 C17.2531648,3.76882381 16.9329451,7.65691905 16.9329451,7.65691905 C16.9514066,10.0298619 14.845033,10.9242333 14.845033,10.9242333 C18.5448132,11.8551857 18.4164615,14.9950143 18.4164615,14.9950143 C18.4164615,19.6131952 12.921956,19.5950143 12.921956,19.5950143 L6.34679121,19.5950148 L6.34679121,3.29414762 Z M-2.1978022e-05,22.7808429 L24.148989,22.7808429 L24.148989,0.0997761905 L-2.1978022e-05,0.0997761905 L-2.1978022e-05,22.7808429 Z" id="Fill-3" fill="#FFFFFF" mask="url(#mask-2)"></path>
                    </g>
                    <path d="M41.7863516,7.88549524 C41.7863516,7.88549524 41.8777802,6.07835238 39.441956,5.95064762 L37.0977802,5.95064762 L37.0977802,10.1673143 L39.094044,10.1673143 C39.094044,10.1673143 41.7863516,10.1307333 41.7863516,7.88549524" id="Fill-6" fill="#FFFFFF"></path>
                    <path d="M43.2515165,14.8767286 C43.2515165,14.8767286 43.3431648,12.7228333 40.1745934,12.7410143 L37.0976703,12.7410143 L37.0976703,17.1949095 L40.1745934,17.1949095 C40.1745934,17.1949095 43.2515165,17.3410143 43.2515165,14.8767286" id="Fill-8" fill="#FFFFFF"></path>
                    <g id="Group-12" transform="translate(27.692308, 0.119162)">
                        <mask id="mask-4" fill="white">
                            <use xlink:href="#path-3"></use>
                        </mask>
                        <g id="Clip-11"></g>
                        <path d="M6.49327473,3.29414762 L12.2304176,3.29414762 C17.3996484,3.76882381 17.0794286,7.65691905 17.0794286,7.65691905 C17.0976703,10.0298619 14.9915165,10.9242333 14.9915165,10.9242333 C18.6910769,11.8551857 18.5629451,14.9950143 18.5629451,14.9950143 C18.5629451,19.6131952 13.0684396,19.5950143 13.0684396,19.5950143 L6.49327473,19.5950148 L6.49327473,3.29414762 Z M0.155692308,22.7808429 L24.3047033,22.7808429 L24.3047033,0.0997761905 L0.155692308,0.0997761905 L0.155692308,22.7808429 Z" id="Fill-10" fill="#FFFFFF" mask="url(#mask-4)"></path>
                    </g>
                    <g id="Group-15" transform="translate(55.604396, 0.119162)">
                        <mask id="mask-6" fill="white">
                            <use xlink:href="#path-5"></use>
                        </mask>
                        <g id="Clip-14"></g>
                        <path d="M19.4604176,18.2991067 C19.4604176,18.2991067 14.4971209,21.2380686 8.74613187,18.9744305 C8.74613187,18.9744305 3.91096703,17.2132876 3.72789011,11.4402876 C3.72789011,11.4402876 3.52613187,5.50322095 9.97316484,3.53157333 C9.97316484,3.53157333 11.6949231,2.87443048 14.7900879,3.16664 C14.7900879,3.16664 16.6397582,3.34910667 19.3138242,4.46252571 L19.3138242,7.47443048 C19.3138242,7.47443048 16.365033,5.66750667 13.105033,5.63092571 C13.105033,5.63092571 7.02459341,5.51264 6.74986813,11.4402876 C6.74986813,11.4402876 6.53008791,16.8934781 13.0318462,17.2038686 C13.0318462,17.2038686 15.7608571,17.53244 19.4604176,15.1776781 L19.4604176,18.2991067 Z M0.0916263736,22.780821 L24.2406374,22.780821 L24.2406374,0.0997542857 L0.0916263736,0.0997542857 L0.0916263736,22.780821 Z" id="Fill-13" fill="#FFFFFF" mask="url(#mask-6)"></path>
                    </g>
                    <path d="M13.9475604,7.88549524 C13.9475604,7.88549524 14.038989,6.07835238 11.6031648,5.95064762 L9.25898901,5.95064762 L9.25898901,10.1673143 L11.2552527,10.1673143 C11.2552527,10.1673143 13.9475604,10.1307333 13.9475604,7.88549524" id="Fill-16" fill="#FFFFFF"></path>
                </g>
            </g>
        </g>
    </g>
</svg>