[
  {
    "source": {
      "id": null,
      "name": "Thestar.com.my"
    },
    "author": "The Star Online",
    "title": "Bitcoin extends rally, breaches US$8,000 for first time since May",
    "description": "HONG KONG: Bitcoin’s rebound continued Tuesday, as the largest cryptocurrency climbed past $8,000 for the first time in two months, leading a revival among digital currencies that have been under pressure for much of the year.",
    "content": "<p>HONG KONG: Bitcoin&rsquo;s rebound continued Tuesday, as the largest cryptocurrency climbed past $8,000 for the first time in two months, leading a revival among digital currencies that have been under pressure for much of the year.<br /><br />Bitcoin jumped as much as 4.1 percent to as high as $8,016.62 during Hong Kong trading hours, the highest since May, according to composite Bloomberg pricing.&nbsp;<br /><br />Rival tokens Ether, Litecoin and Ripple also rallied, according to data compiled by Bloomberg.<br /><br />With the latest gains, the total value of cryptocurrencies worldwide is again approaching $300 billion, according to data from Coinmarketcap.com.&nbsp;<br /><br />Bitcoin still remains almost 60 percent down its peak of almost $20,000 in December.</p>",
    "path": "bitcoin-extends-rally-breaches-us8000-for-first-time-since-may",
    "url": "http://www.thestar.com.my/business/business-news/2018/07/24/bitcoin-extends-rally-breaches-us$8000-for-first-time-since-may/",
    "urlToImage": "https://www.thestar.com.my/~/media/online/2018/07/15/11/18/bitcoin-usd-pc.ashx/?w=620&h=413&crop=1&hash=B563E0377A77710ADEC771FFDE380D05B0E994FA",
    "publishedAt": "2018-07-24T07:46:45Z",
    "rank": 2
  },
  {
    "source": {
      "id": null,
      "name": "Gbhackers.com"
    },
    "author": "https://www.facebook.com/Balaji-N-1843502945937428/",
    "title": "New Clipboard Malware Monitors the Windows Clipboard for Cryptocurrency Addresses and Replace its Own Address",
    "description": "New Clipboard Malware variant discovered that abuse the users Copy-Paste habit and check the Cryptocurrency wallet to replaced its own wallet Address in the Clipboard. Cryptocurrency Address is very unique and it is difficult to remember since its a very long…",
    "content": "<p>New Clipboard Malware variant discovered that abuse the users Copy-Paste habit and check the Cryptocurrency wallet to replaced its own wallet Address in the Clipboard.</p><p>Cryptocurrency Address is very unique and it is difficult to remember since its a very long length address with the combination of letters and numbers.</p><p>Whenever Users Copy something from their computer using Ctrl+C, the copied data will be stored in clipboard where the attacker gains the information using this new malware.</p><p>Clipboard is a shared memory area that you can copy data into and copy data from. All applications have access to this clipboard, data can be easily transferred between applications and windows provides APIs for managing clipboard.</p><p>A user always has a habit to copy such as Cryptocurrency Addresses that contain longer length, so Malware authors are exploiting this habit of copy-past habit and generate huge revenue.</p><p>Also, this will leads to face the huge loose if there will be some sensitive data such as bank data, Passwords, and other financial information.</p>",
    "path": "new-clipboard-malware-monitors-the-windows-clipboard-for-cryptocurrency-addresses-and-replace-its-own-address",
    "url": "https://gbhackers.com/clipboard-malware/",
    "urlToImage": "https://i2.wp.com/gbhackers.com/wp-content/uploads/2018/07/XftBL1532413958.png?fit=800%2C449&ssl=1",
    "publishedAt": "2018-07-24T07:31:00Z",
    "rank": 3
  },
  {
    "source": {
      "id": "business-insider",
      "name": "Business Insider"
    },
    "author": "Bryan Logan",
    "title": "Tesla loses top sales exec ahead of second-quarter earnings (TSLA)",
    "description": "Ganesh Srivats, a top Tesla sales executive in charge of global growth at the company, has resigned. Srivats arrived at Tesla from the luxury retailer Burberry in 2015 to serve as vice president of North American sales. His role was expanded to cover global m…",
    "content": "Ganesh Srivats, a top sales executive at Tesla, has resigned.\nSrivats joined Tesla in 2015 as vice president of North American sales. In February, his role was expanded to cover global markets. The same month, Tesla lost another top executive in Jon McNeil, who served as president of sales and service. Srivats had taken on some of McNeil\u0027s responsibilities in addition to his own.\n\u0022We&rsquo;d like to thank Ganesh for his hard work and wish him all the best in the future,\u0022 a Tesla spokesperson told Business Insider in an email Monday night.\nSrivats arrived at Tesla from the luxury retailer Burberry. He now leaves Tesla to become CEO of the online retailer Moda Operandi, effective August 1, according to a company press release.\nTesla\u0027s Robin Ren, who had been in charge of the company\u0027s operations in China, took over worldwide sales earlier this year. Srivats had been on leave from Tesla since then.\nNews of Srivats\u0027 departure comes just days before Tesla announces its second-quarter earnings, and a day after&nbsp;The Wall Street Journal reported that the company had asked suppliers for refunds to help bolster its bottom line.",
    "path": "tesla-loses-top-sales-exec-ahead-of-second-quarter-earnings-tsla",
    "url": "https://www.businessinsider.com/tesla-ganesh-srivats-sales-executive-resigns-2018-7",
    "urlToImage": "https://amp.businessinsider.com/images/5b56b2d3d30cd42d008b462b-1920-960.jpg",
    "publishedAt": "2018-07-24T06:49:20Z",
    "rank": 4
  },
  {
    "source": {
      "id": null,
      "name": "Youbrandinc.com"
    },
    "author": "Scott Scanlon",
    "title": "Australian blockchain innovators seeking to provide greater voting transparency in emerging democracies",
    "description": "Posted July 24, 2018 09:24:03 A Melbourne-based start-up is seeking to use the same blockchain technology underpinning bitcoin to provide greater voting transparency in emerging democracies. In just under nine months Indonesia, the world’s third largest democ…",
    "content": "A Melbourne-based start-up is seeking to use the same blockchain technology underpinning bitcoin to provide greater voting transparency in emerging democracies. In just under nine months Indonesia, the world&#8217;s third largest democracy, will hold its national election, giving more than 250 million residents the chance to vote for the next president and legislators.</p><p> Scandals and allegations of vote rigging over the last 20 years have plagued the fledgling democracy, which according to international election monitors has severely affected public trust in the election process. Media player: &#8220;Space&#8221; to play, &#8220;M&#8221; to mute, &#8220;left&#8221; and &#8220;right&#8221; to seek.</p><p> &#8220;If you utilise blockchain to submit a vote in the same way that a bitcoin transaction can&#8217;t be reversed, it can&#8217;t be changed, it&#8217;s a trustworthy process based on a system, which is not owned by any one entity, not by an organisation, or a government or an individual,&#8221; said Horizon State&#8217;s Jamie Skella, who designed the platform. &#8220;These are all pretty great properties for a digital ballot box, so in the same way the vote can&#8217;t be maliciously tampered with, it can&#8217;t be removed and it can&#8217;t be changed.&#8221;</p>",
    "path": "australian-blockchain-innovators-seeking-to-provide-greater-voting-transparency-in-emerging-democracies",
    "url": "https://www.youbrandinc.com/blockchain/australian-blockchain-innovators-seeking-to-provide-greater-voting-transparency-in-emerging-democracies/",
    "urlToImage": "https://www.youbrandinc.com/wp-content/uploads/2018/07/10026262-16x9-700x394.jpg",
    "publishedAt": "2018-07-24T06:44:03Z",
    "rank": 5
  },
  {
    "source": {
      "id": null,
      "name": "Newsbtc.com"
    },
    "author": "Aayush Jindal",
    "title": "Ripple Price Analysis: XRP/USD Could Break $0.4300",
    "description": "Key Highlights Ripple price struggled to break the $0.4650 resistance and declined below $0.4500 against the US dollar. There was a break below an ascending channel with support at $0.4550 on the hourly chart of the XRP/USD pair (data source from Kraken). The…",
    "content": "<p>Yesterday, there was a tiny upside move above $0.4550 in Ripple price against the US Dollar. The XRP/USD pair traded above the $0.4600 level, but it failed to move above the $0.4650 resistance area. More importantly, there was a failure near the previous swing high and the 100 hourly simple moving average. Lastly, the 50% Fib retracement level of the last drop from the $0.4946 high to $0.4292 low also prevented gains.</p><p>The price started a downside move and broke the $0.4600 support. There was also a break below an ascending channel with support at $0.4550 on the hourly chart of the XRP/USD pair. The pair is now trading well below the $0.4500 level and the 100 hourly SMA. An initial support is near the $0.4400 level, below which the price is likely to revisit the last swing low near $0.4300. Should sellers remain in control, there are chances of more declines below the $0.4300 level in the near term. The next support is at $0.4200 followed by $0.4080.</p>",
    "path": "ripple-price-analysis-xrp-usd-could-break-04300",
    "url": "https://www.newsbtc.com/2018/07/24/ripple-price-analysis-xrp-usd-could-break-0-4300/",
    "urlToImage": "https://s3.amazonaws.com/main-newsbtc-images/2018/04/17064013/techanalysis-xrp3.jpg",
    "publishedAt": "2018-07-24T06:30:43Z",
    "rank": 6
  },
  {
    "source": {
      "id": "bloomberg",
      "name": "Bloomberg"
    },
    "author": "Eric Lam",
    "title": "Bitcoin Extends Rally, Tops $8,000 for First Time Since May",
    "description": "Bitcoin’s rebound continued Tuesday as the largest cryptocurrency climbed past the $8,000 level for the first time in two months, leading a revival among digital currencies which have been under pressure for much of this year.",
    "content": "<p>Hope springs eternal, especially for Bitcoin diehards when it comes to the prospects for the first cryptocurrency exchange-traded fund.</p><p>The largest virtual currency has rallied about 40 percent since the start of July, in part on speculation that the Securities and Exchange Commission may make a decision as soon as August. That&#x2019;s helped to ease some of the sting from the price plunge that saw Bitcoin drop for a record high of almost $20,000 in December to around the $8,000 level Tuesday.</p><p>Bitwise Asset Management filed a registration statement Tuesday with the SEC to offer the first publicly traded crypto index fund, to be called the Bitwise HOLD 10 Cryptocurrency Index Fund. </p>",
    "path": "bitcoin-extends-rally-tops-8000-for-first-time-since-may",
    "url": "https://www.bloomberg.com/news/articles/2018-07-24/bitcoin-extends-rally-tops-8-000-for-first-time-since-may",
    "urlToImage": "https://assets.bwbx.io/images/users/iqjWHBFdfxIU/izalVNWCPFn0/v0/1200x675.png",
    "publishedAt": "2018-07-24T06:23:13Z",
    "rank": 7
  },
  {
    "source": {
      "id": null,
      "name": "Coindesk.com"
    },
    "author": "Wolfie Zhao",
    "title": "Bitcoin Price Climbs Back Above $8k to Reach 60-Day High",
    "description": "Bitcoin's price jumped by $200 within two hours on Wednesday and climbed up to $8,000 for the first time in two months, data shows.",
    "content": "<p>Bitcoin's price has climbed back above $8,000 for the first time in two months.</p><p>According to CoinDesk'sBitcoin Price Index, the price of the world's largest cryptocurrency by market capitalization jumped by $200 in just two hours on Wednesday and is changing hands at $8,015 as of press time – that's a level not seen since May 24.</p><p>The price of bitcoin had been declining since May 24 and reached a new year's low at $5,785 on June 24, after which it started regaining momentum for a move back above $8,000, reflecting a nearly 40 percent increase since the June low.</p><p>Data from Bitfinex shows the trading volume of bitcoin more than doubled amid the price move, having increased from $4.9 million to $12.6 million within just four hours on the exchange.</p><p>That said, bitcoin is still down nearly 53 percent from the yearly high above $17,000 seen in January.</p><p>Meanwhile, data shows that bitcoin's market capitalization dominance has also increased significantly over the past two months.</p><p>According to CoinMarketCap, bitcoin accounted for 37 percent of the total cryptocurrency market capitalization in mid-May. Yet that data has increased to 47 percent as of press time, pushing bitcoin's dominance to a level not seen since late December.</p><p>Notably, bitcoin is the only top 10 cryptocurrency by market cap that has seen growth over the past 24 hours, with other major cryptos all seeing declines of 1–5 percent, respectively.</p>",
    "path": "bitcoin-price-climbs-back-above-8k-to-reach-60-day-high",
    "url": "https://www.coindesk.com/bitcoin-price-climbs-back-above-8000-to-reach-60-day-high/",
    "urlToImage": "https://media.coindesk.com/uploads/2017/01/Climb.jpg",
    "publishedAt": "2018-07-24T06:15:14Z",
    "rank": 8
  },
  {
    "source": {
      "id": null,
      "name": "Youbrandinc.com"
    },
    "author": "Scott Scanlon",
    "title": "Riot Blockchain: Why I’m Bullish On Bitcoin And Getting Involved.",
    "description": "Bitcoin may have reached an important bottom and has the potential for another big rally. Riot’s mining and diversification could boost valuation. There are some big risks but also the potential for big reward. Bitcoin (BTC-USD) has rallied strongly on the we…",
    "content": "<p>Bitcoin may have reached an important bottom and has the potential for another big rally. Riot&#8217;s mining and diversification could boost valuation.</p><p> There are some big risks but also the potential for big reward. Bitcoin (BTC-USD) has rallied strongly on the week to buck the year-long downtrend and the negative sentiment which has seen critics doubt its survival, giving a boost to the price of Riot Blockchain (RIOT).</p><p> In this article I will discuss why I am bullish on Bitcoin and why I see this providing support to Riot Blockchain in what may be a short-term speculative play. After beginning the week around $6,350 the price of Bitcoin came within a whisker of resistance at $7700 on Friday, before fading in late trading.</p><p> Despite the pullback to $7,283, Bitcoin is still higher by 14% on the week and during the last month, quieter weekend trading has seen bullish moves occurring. This may propel Bitcoin to a strong close on the week.</p><p> A strong close would see another boost to Riot&#8217;s price, which was up 27% from Monday&#8217;s open. After failing to sustain two rallies in February and April of this year, Bitcoin&#8217;s future was being cast into doubt by its critics. Read more from seekingalpha.com&#8230;</p><p><i>thumbnail courtesy of seekingalpha.com</i></p>",
    "path": "riot-blockchain-why-im-bullish-on-bitcoin-and-getting-involved",
    "url": "https://www.youbrandinc.com/crytocurrency/riot-blockchain-why-im-bullish-on-bitcoin-and-getting-involved/",
    "urlToImage": null,
    "publishedAt": "2018-07-24T06:03:21Z",
    "rank": 9
  },
  {
    "source": {
      "id": null,
      "name": "Bitcoinist.com"
    },
    "author": "Austin Kennedy",
    "title": "London Police Proactive Against Alleged Cryptocurrency Money Laundering",
    "description": "After a warning from European law enforcement agency Europol earlier this year that billions of pounds are being laundered through cryptocurrencies, City of London officials have decided to take matters into their own hands. Transactions made in Bitcoin and o…",
    "content": "<p>Transactions made in Bitcoin and other cryptocurrencies are notoriously complicated to trace due to the fact that users can generally generate unlimited numbers of wallets without providing any identifying information. Nevertheless, law enforcement agencies seem to have no trouble tracking down cybercriminals dealing in cryptocurrencies — as evidenced by the recent indictment of Russian intelligence officers who used Bitcoin to fund their interference with the 2016 U.S. presidential election.</p><p>Earlier this year, Europol officials arrested 11 individuals and identified 137 others allegedly involved in a large-scale network for laundering drug money with cryptocurrencies as a part of its Tulipan Blanca operation. The agency warned that there is currently three to four billion pounds ($4.1 to $5.5 billion) worth of digital currencies being laundered in Europe alone, though little evidence was provided to back this claim.</p>",
    "path": "london-police-proactive-against-alleged-cryptocurrency-money-laundering",
    "url": "https://bitcoinist.com/london-police-train-hamper-alleged-money-laundering/",
    "urlToImage": "https://bitcoinist.com/wp-content/uploads/2018/07/shutterstock_452407912.jpg",
    "publishedAt": "2018-07-24T06:00:08Z",
    "rank": 10
  },
  {
    "source": {
      "id": "the-guardian-au",
      "name": "The Guardian (AU)"
    },
    "author": "Douglas Rushkoff for Medium",
    "title": "How tech's richest plan to save themselves after the apocalypse",
    "description": "Silicon Valley’s elite are hatching plans to escape disaster – and when it comes, they’ll leave the rest of us behind Last year, I got invited to a super-deluxe private resort to deliver a keynote speech to what I assumed would be a hundred or so investment b…",
    "content": "Last year, I got invited to a super-deluxe private resort to deliver a keynote speech to what I assumed would be a hundred or so investment bankers. It was by far the largest fee I had ever been offered for a talk – about half my annual professor’s salary – all to deliver some insight on the subject of “the future of technology”.</p><p>I’ve never liked talking about the future. The Q&amp;A sessions always end up more like parlor games, where I’m asked to opine on the latest technology buzzwords as if they were ticker symbols for potential investments: blockchain, 3D printing, Crispr. The audiences are rarely interested in learning about these technologies or their potential impacts beyond the binary choice of whether or not to invest in them. But money talks, so I took the gig.</p>",
    "path": "how-techs-richest-plan-to-save-themselves-after-the-apocalypse",
    "url": "https://www.theguardian.com/technology/2018/jul/23/tech-industry-wealth-futurism-transhumanism-singularity",
    "urlToImage": "https://i.guim.co.uk/img/media/1180ab3a1a71654796a9be315f0255318a01a2f3/200_0_2000_1200/master/2000.jpg?w=1200&h=630&q=55&auto=format&usm=12&fit=crop&crop=faces%2Centropy&bm=normal&ba=bottom%2Cleft&blend64=aHR0cHM6Ly9hc3NldHMuZ3VpbS5jby51ay9pbWFnZXMvb3ZlcmxheXMvZDM1ODZhNWVmNTc4MTc1NmQyMWEzYjYzNWU1MTcxNDEvdGctZGVmYXVsdC5wbmc=&s=bb752c51c7728f4948f7d987395e93a5",
    "publishedAt": "2018-07-24T06:00:05Z",
    "rank": 11
  },
  {
    "source": {
      "id": null,
      "name": "Itweb.co.za"
    },
    "author": "ITWeb, Tamsin Oxford",
    "title": "(Most Popular) Fine-tuning the complexities of IT governance",
    "description": "W hen it comes to governance, risk and compliance (GRC), it seems the world is constantly playing catch-up. According to Forrester's report, 'GRC Vision 2017-2011: Customers Demands Escalate as Regulators Falter', regulators are unable to catch up with the sp…",
    "content": "<p>According to Forrester's report, 'GRC Vision 2017-2011: Customers Demands Escalate as Regulators Falter', regulators are unable to catch up with the speed of technology and adoption, while the hyperadoption of new technologies and business models is putting customers at risk.</p><p>Although many organisations have been paying attention to the GRC requirements and vendors have been touting their GRC-focused wares, the reality is that it is nowhere near ready.</p><p>Regardless of the investments into enterprise risk management, compliance and ethics, cybersecurity, health and safety, third-party risk et al, organisations aren't in a position to deal with the governance impact of digital disruption today, much less in the next five to ten years. GRC is the proverbial thorn in the elephant's foot, and it's going to take more than a mouse to get it out.</p><p>IT governance has to speed up and catch up. Regulators need the right tools, time and funding. Rules require relevance, and organisations need to mitigate risk. The Forrester report highlighted three trends that are influencing governance: regulators falling out of the race, customer pressure improving corporate behaviour, and the rising value of intangible assets causing risk to rocket.</p>",
    "path": "fine-tuning-the-complexities-of-it-governance",
    "url": "https://www.itweb.co.za/content/6GxRKqY8yL5Mb3Wj",
    "urlToImage": "https://www.itweb.co.za/static/pictures/2018/07/resized/-fs-Saurabh-Kumar-1-2018.xl.jpg",
    "publishedAt": "2018-07-24T06:00:00Z",
    "rank": 1
  }
]
